mysite/maintest/mytools/vcd2pic/pin_test.vcd
$date
	Sat Apr 07 13:52:08 2018
$end
$version
	ModelSim Version 10.1c
$end
$timescale
	1us
$end
$scope module pin_test_tb $end
$var reg 1 ! pin_in $end
$var reg 1 " en_output $end
$var reg 1 # data_in $end
$var wire 1 $ pin_out $end
$var wire 1 % data_out $end
$var wire 1 & tri_inout $end
$var reg 1 ' in_tri_inout $end
$upscope $end
$enddefinitions $end
#0
$dumpvars
0!
0"
0#
0'
0$
0%
0&
$end
#1
1!
1$
#2
0!
1'
1&
0$
1%
#3
1!
0'
0&
1$
0%
#4
0!
1'
1&
0$
1%
#5
1!
1$
#6
0!
0'
0&
0$
0%
#7
1!
1'
1&
1$
1%
#8
0!
1"
z&
0$
0%
0&
#9
1!
1#
1$
1&
#10
0!
0#
0$
0&
#11
1!
1$
#12
0!
1#
0$
1&
#13
1!
0#
1$
0&
#14
0!
1#
0$
1&
#15
1!
1$
#16
0!
0$
#17
1!
1$
#18
0!
0$
#19
1!
1$
#20
0!
0$
