mysite/maintest/mytools/vcd2pic/test_tri.vcd
$date
   Wed Jul 11 14:45:16 2018
$end
$version
  P.20131013
$end
$timescale
  1us
$end
$scope module test_tri_tb $end
$scope module uut $end
$var wire 1 ! clk $end
$var wire 1 " wea $end
$var wire 1 # addra[3] $end
$var wire 1 $ addra[2] $end
$var wire 1 % addra[1] $end
$var wire 1 & addra[0] $end
$var wire 1 ' tri_inout[7] $end
$var wire 1 ( tri_inout[6] $end
$var wire 1 ) tri_inout[5] $end
$var wire 1 * tri_inout[4] $end
$var wire 1 + tri_inout[3] $end
$var wire 1 , tri_inout[2] $end
$var wire 1 - tri_inout[1] $end
$var wire 1 . tri_inout[0] $end
$upscope $end
$upscope $end
$enddefinitions $end
#0
$dumpvars
0.
0-
0,
0+
0*
0)
0(
0'
0!
1"
0&
0%
0$
0#
$end
#1
1!
#2
1.
0!
1&
#3
1!
#4
0.
1-
0!
0&
1%
#5
1!
#6
1.
0!
1&
#7
1!
#8
0.
0-
1,
0!
0&
0%
1$
#9
1!
#10
1.
0!
1&
#11
1!
#12
0.
1-
0!
0&
1%
#13
1!
#14
1.
0!
1&
#15
1!
#16
0.
0-
0,
1+
0!
0&
0%
0$
1#
#17
1!
#18
1.
0!
1&
#19
1!
#20
0.
1-
0!
0&
1%
#21
1!
#22
1.
0!
1&
#23
1!
#24
0.
0-
1,
0!
0&
0%
1$
#25
1!
#26
1.
0!
1&
#27
1!
#28
0.
1-
0!
0&
1%
#29
1!
#30
1.
0!
1&
#31
1!
#32
0!
0"
0&
0%
0$
0#
#33
1!
0.
0-
0,
0+
#34
0!
1&
#35
1!
1.
#36
0!
0&
1%
#37
1!
0.
1-
#38
0!
1&
#39
1!
1.
#40
0!
0&
0%
1$
#41
1!
0.
0-
1,
#42
0!
1&
#43
1!
1.
#44
0!
0&
1%
#45
1!
0.
1-
#46
0!
1&
#47
1!
1.
#48
0!
0&
0%
0$
1#
#49
1!
0.
0-
0,
1+
#50
0!
1&
#51
1!
1.
#52
0!
0&
1%
#53
1!
0.
1-
#54
0!
1&
#55
1!
1.
#56
0!
0&
0%
1$
#57
1!
0.
0-
1,
#58
0!
1&
#59
1!
1.
#60
0!
0&
1%
#61
1!
0.
1-
#62
0!
1&
#63
1!
1.
#64
0!
0&
0%
0$
0#
#65
1!
0.
0-
0,
0+
