mysite/Users/all_users/uploads/accu1/accu1_trf.vcd
$date
	Sat Apr 20 14:07:24 2019
$end
$version
	ModelSim Version 10.1c
$end
$timescale
	1us
$end
$scope module accu1_tb $end
$var wire 1 ! compareout512 $end
$var wire 1 " comcheck[35] $end
$var wire 1 # comcheck[34] $end
$var wire 1 $ comcheck[33] $end
$var wire 1 % comcheck[32] $end
$var wire 1 & comcheck[31] $end
$var wire 1 ' comcheck[30] $end
$var wire 1 ( comcheck[29] $end
$var wire 1 ) comcheck[28] $end
$var wire 1 * comcheck[27] $end
$var wire 1 + comcheck[26] $end
$var wire 1 , comcheck[25] $end
$var wire 1 - comcheck[24] $end
$var wire 1 . comcheck[23] $end
$var wire 1 / comcheck[22] $end
$var wire 1 0 comcheck[21] $end
$var wire 1 1 comcheck[20] $end
$var wire 1 2 comcheck[19] $end
$var wire 1 3 comcheck[18] $end
$var wire 1 4 comcheck[17] $end
$var wire 1 5 comcheck[16] $end
$var wire 1 6 comcheck[15] $end
$var wire 1 7 comcheck[14] $end
$var wire 1 8 comcheck[13] $end
$var wire 1 9 comcheck[12] $end
$var wire 1 : comcheck[11] $end
$var wire 1 ; comcheck[10] $end
$var wire 1 < comcheck[9] $end
$var wire 1 = comcheck[8] $end
$var wire 1 > comcheck[7] $end
$var wire 1 ? comcheck[6] $end
$var wire 1 @ comcheck[5] $end
$var wire 1 A comcheck[4] $end
$var wire 1 B comcheck[3] $end
$var wire 1 C comcheck[2] $end
$var wire 1 D comcheck[1] $end
$var wire 1 E comcheck[0] $end
$var wire 36 F abin[35:0] $end
$var wire 1 G clkin $end
$var wire 1 H ldin $end
$var wire 1 I enout $end
$var wire 1 J rstp $end
$upscope $end
$enddefinitions $end
#0
$dumpvars
0!
0"
0#
0$
0%
0&
0'
0(
0)
0*
0+
0,
0-
0.
0/
00
01
02
03
04
05
06
07
08
09
0:
0;
0<
0=
0>
0?
0@
0A
0B
0C
0D
0E
b000000000000000000000000000000000000 F
0G
0H
1I
1J
$end
#10
#11
#12
#14
#27
#38
#54
1G
#56
0G
#58
1G
#60
0G
#62
1G
#64
0G
#66
1G
#68
0G
#70
1G
#72
0G
#74
1G
#76
0G
#78
1G
#80
0G
#82
1G
#84
0G
#86
1G
#88
1H
0J
0G
b000000000000000000000000001001001011 F
#90
1G
1E
1?
1B
1D
1<
#92
0G
#94
1G
0E
1>
0?
1A
0B
1C
1;
0<
#96
0G
#98
1G
1E
1?
1@
0A
0C
0D
1<
#100
0G
#102
1G
0E
1=
0>
0?
1B
1C
1:
0;
0<
#104
0G
#106
1G
1E
1?
1A
0B
1D
1<
#108
0G
#110
1G
0E
1>
0@
0A
0C
1;
0<
#112
0G
#114
1G
1E
0=
0>
0?
1B
1C
0D
19
0:
0;
#116
0G
#118
1G
0E
1?
1A
0C
1<
#120
0G
#122
1G
1E
1>
0?
1@
0A
0B
1D
1;
0<
#124
0G
#126
1G
0E
1?
1B
1C
1<
#128
0G
#130
1G
1E
1=
0>
0?
1A
0C
0D
1:
0;
0<
#132
0G
#134
1G
0E
1>
0@
0A
0B
1C
1<
#136
0G
#138
1G
1E
1?
1B
1D
1;
0<
#140
0G
#142
1G
0E
0=
0>
0?
1A
0C
18
09
0:
0;
#144
0G
#146
1G
1E
1?
1@
0A
0B
1C
0D
1<
#148
0G
#150
1G
0E
1>
0?
1A
0C
1;
0<
#152
0G
#154
1G
1E
1?
1B
1D
1<
#156
0G
#158
1G
0E
1=
0>
0@
0A
0B
1C
1:
0;
0<
#160
0G
#162
1G
1E
1>
0?
1A
0C
0D
1<
#164
0G
#166
1G
0E
1?
1B
1C
1;
0<
#168
0G
#170
1G
1E
0=
0>
0?
1@
0A
0B
1D
19
0:
0;
#172
0G
#174
1G
0E
1?
1A
0C
1<
#176
0G
#178
1G
1E
1>
0?
1B
1C
0D
1;
0<
#180
0G
#182
1G
0E
1=
0>
0@
0A
0C
1<
#184
0G
#186
1G
1E
1?
1A
0B
1D
1:
0;
0<
#188
0G
#190
1G
0E
1>
0?
1B
1C
1<
#192
0G
#194
1G
1E
1?
1@
0A
0C
0D
1;
0<
#196
0G
#198
1G
0E
0=
0>
0?
1A
0B
1C
17
08
09
0:
0;
#200
0G
#202
1G
1E
1?
1B
1D
1<
#204
0G
#206
1G
0E
1>
0@
0A
0C
1;
0<
#208
0G
#210
1G
1E
1=
0>
0?
1A
0B
1C
0D
1<
#212
0G
#214
1G
0E
1?
1@
0A
0C
1:
0;
0<
#216
0G
#218
1G
1E
1>
0?
1B
1D
1<
#220
0G
#222
1G
0E
1?
1A
0B
1C
1;
0<
#224
0G
#226
1G
1E
0=
0>
0@
0A
0C
0D
19
0:
0;
#228
0G
#230
1G
0E
1>
0?
1B
1C
1<
#232
0G
#234
1G
1E
1?
1A
0B
1D
1;
0<
#236
0G
#238
1G
0E
1=
0>
0?
1@
0A
0C
1<
#240
0G
#242
1G
1E
1?
1B
1C
0D
1:
0;
0<
#244
0G
#246
1G
0E
1>
0?
1A
0C
1<
#248
0G
#250
1G
1E
0=
0>
0@
0A
0B
1D
1;
#252
0G
#254
1G
0E
1?
1B
1C
18
09
0:
0;
0<
#256
0G
#258
1G
1E
1>
0?
1A
0C
0D
1<
#260
0G
#262
1G
0E
1?
1@
0A
0B
1C
1;
0<
#264
0G
#266
1G
1E
1=
0>
0?
1B
1D
1<
#268
0G
#270
1G
0E
1?
1A
0C
1:
0;
0<
#272
0G
#274
1G
1E
1>
0@
0A
0B
1C
0D
1<
#276
0G
#278
1G
0E
0=
0>
0?
1A
0C
1;
#280
0G
#282
1G
1E
1?
1B
1D
19
0:
0;
0<
#284
0G
#286
1G
0E
1>
0?
1@
0A
0B
1C
1<
#288
0G
#290
1G
1E
1?
1A
0C
0D
1;
0<
#292
0G
#294
1G
0E
1=
0>
0?
1B
1C
1<
#296
0G
#298
1G
1E
1>
0@
0A
0B
1D
1:
0;
0<
#300
0G
#302
1G
0E
1?
1A
0C
1<
#304
0G
#306
1G
1E
0=
0>
0?
1B
1C
0D
1;
#308
0G
#310
1G
0E
1?
1@
0A
0C
16
07
08
09
0:
0;
0<
#312
0G
#314
1G
1E
1>
0?
1A
0B
1D
1<
#316
0G
#318
1G
0E
1?
1B
1C
1;
0<
#320
0G
#322
1G
1E
1=
0>
0@
0A
0C
0D
1<
#324
0G
#326
1G
0E
1>
0?
1A
0B
1C
1:
0;
0<
#328
0G
#330
1G
1E
1?
1B
1D
1<
#332
0G
#334
1G
0E
0=
0>
0?
1@
0A
0C
1;
#336
0G
#338
1G
1E
1?
1A
0B
1C
0D
19
0:
0;
0<
#340
0G
#342
1G
0E
1>
0@
0A
0C
1<
#344
0G
#346
1G
1E
1=
0>
0?
1B
1D
1;
0<
#348
0G
#350
1G
0E
1?
1A
0B
1C
1<
#352
0G
#354
1G
1E
1>
0?
1@
0A
0C
0D
1:
0;
0<
#356
0G
#358
1G
0E
1?
1B
1C
1<
#360
0G
#362
1G
1E
0=
0>
0?
1A
0B
1D
1;
#364
0G
#366
1G
0E
1>
0@
0A
0C
18
09
0:
0;
0<
#368
0G
#370
1G
1E
1?
1B
1C
0D
1<
#372
0G
#374
1G
0E
1=
0>
0?
1A
0C
1;
0<
#376
0G
#378
1G
1E
1?
1@
0A
0B
1D
1<
#380
0G
#382
1G
0E
1>
0?
1B
1C
1:
0;
0<
#384
0G
#386
1G
1E
1?
1A
0C
0D
1<
#388
0G
#390
1G
0E
0=
0>
0@
0A
0B
1C
1;
#392
0G
#394
1G
1E
1>
0?
1B
1D
19
0:
0;
0<
#396
0G
#398
1G
0E
1?
1A
0C
1<
#400
0G
#402
1G
1E
1=
0>
0?
1@
0A
0B
1C
0D
1;
0<
#404
0G
#406
1G
0E
1?
1A
0C
1<
#408
0G
#410
1G
1E
1>
0?
1B
1D
1:
0;
0<
#412
0G
#414
1G
0E
0=
0>
0@
0A
0B
1C
1;
#416
0G
#418
1G
1E
1?
1A
0C
0D
1<
#420
0G
#422
1G
0E
1>
0?
1B
1C
17
08
09
0:
0;
0<
#424
0G
#426
1G
1E
1?
1@
0A
0B
1D
1<
#428
0G
#430
1G
0E
1=
0>
0?
1A
0C
1;
0<
#432
0G
#434
1G
1E
1?
1B
1C
0D
1<
#436
0G
#438
1G
0E
1>
0@
0A
0C
1:
0;
0<
#440
0G
#442
1G
1E
0=
0>
0?
1A
0B
1D
1;
#444
0G
#446
1G
0E
1?
1B
1C
1<
#448
0G
#450
1G
1E
1>
0?
1@
0A
0C
0D
19
0:
0;
0<
#452
0G
#454
1G
0E
1?
1A
0B
1C
1<
#456
0G
#458
1G
1E
1=
0>
0?
1B
1D
1;
0<
#460
0G
#462
1G
0E
1>
0@
0A
0C
1<
#464
0G
#466
1G
1E
1?
1A
0B
1C
0D
1:
0;
0<
#468
0G
#470
1G
0E
0=
0>
0?
1@
0A
0C
1;
#472
0G
#474
1G
1E
1?
1B
1D
1<
#476
0G
#478
1G
0E
1>
0?
1A
0B
1C
18
09
0:
0;
0<
#480
0G
#482
1G
1E
1=
0>
0@
0A
0C
0D
1<
#484
0G
#486
1G
0E
1?
1B
1C
1;
0<
