mysite/Users/all_groups/1/pj3/accu1/accu1_merge.vcd
$date
	Sun Apr 21 13:20:39 2019
$end
$version
	ModelSim Version 10.1c
$end
$timescale
	1us
$end
$scope module _tb $end
$var wire 1 ! error $end
$var wire 1 " compareout512_ref $end
$var wire 1 # comcheck_ref[35] $end
$var wire 1 $ comcheck_ref[34] $end
$var wire 1 % comcheck_ref[33] $end
$var wire 1 & comcheck_ref[32] $end
$var wire 1 ' comcheck_ref[31] $end
$var wire 1 ( comcheck_ref[30] $end
$var wire 1 ) comcheck_ref[29] $end
$var wire 1 * comcheck_ref[28] $end
$var wire 1 + comcheck_ref[27] $end
$var wire 1 , comcheck_ref[26] $end
$var wire 1 - comcheck_ref[25] $end
$var wire 1 . comcheck_ref[24] $end
$var wire 1 / comcheck_ref[23] $end
$var wire 1 0 comcheck_ref[22] $end
$var wire 1 1 comcheck_ref[21] $end
$var wire 1 2 comcheck_ref[20] $end
$var wire 1 3 comcheck_ref[19] $end
$var wire 1 4 comcheck_ref[18] $end
$var wire 1 5 comcheck_ref[17] $end
$var wire 1 6 comcheck_ref[16] $end
$var wire 1 7 comcheck_ref[15] $end
$var wire 1 8 comcheck_ref[14] $end
$var wire 1 9 comcheck_ref[13] $end
$var wire 1 : comcheck_ref[12] $end
$var wire 1 ; comcheck_ref[11] $end
$var wire 1 < comcheck_ref[10] $end
$var wire 1 = comcheck_ref[9] $end
$var wire 1 > comcheck_ref[8] $end
$var wire 1 ? comcheck_ref[7] $end
$var wire 1 @ comcheck_ref[6] $end
$var wire 1 A comcheck_ref[5] $end
$var wire 1 B comcheck_ref[4] $end
$var wire 1 C comcheck_ref[3] $end
$var wire 1 D comcheck_ref[2] $end
$var wire 1 E comcheck_ref[1] $end
$var wire 1 F comcheck_ref[0] $end
$var wire 36 G abin_ref[35:0] $end
$var wire 1 H clkin_ref $end
$var wire 1 I ldin_ref $end
$var wire 1 J enout_ref $end
$var wire 1 K rstp_ref $end
$var wire 1 L compareout512 $end
$var wire 1 M comcheck[35] $end
$var wire 1 N comcheck[34] $end
$var wire 1 O comcheck[33] $end
$var wire 1 P comcheck[32] $end
$var wire 1 Q comcheck[31] $end
$var wire 1 R comcheck[30] $end
$var wire 1 S comcheck[29] $end
$var wire 1 T comcheck[28] $end
$var wire 1 U comcheck[27] $end
$var wire 1 V comcheck[26] $end
$var wire 1 W comcheck[25] $end
$var wire 1 X comcheck[24] $end
$var wire 1 Y comcheck[23] $end
$var wire 1 Z comcheck[22] $end
$var wire 1 [ comcheck[21] $end
$var wire 1 \ comcheck[20] $end
$var wire 1 ] comcheck[19] $end
$var wire 1 ^ comcheck[18] $end
$var wire 1 _ comcheck[17] $end
$var wire 1 ` comcheck[16] $end
$var wire 1 a comcheck[15] $end
$var wire 1 b comcheck[14] $end
$var wire 1 c comcheck[13] $end
$var wire 1 d comcheck[12] $end
$var wire 1 e comcheck[11] $end
$var wire 1 f comcheck[10] $end
$var wire 1 g comcheck[9] $end
$var wire 1 h comcheck[8] $end
$var wire 1 i comcheck[7] $end
$var wire 1 j comcheck[6] $end
$var wire 1 k comcheck[5] $end
$var wire 1 l comcheck[4] $end
$var wire 1 m comcheck[3] $end
$var wire 1 n comcheck[2] $end
$var wire 1 o comcheck[1] $end
$var wire 1 p comcheck[0] $end
$var wire 36 q abin[35:0] $end
$var wire 1 r clkin $end
$var wire 1 s ldin $end
$var wire 1 t enout $end
$var wire 1 u rstp $end
$upscope $end
$enddefinitions $end
#0
$dumpvars
0!
0"
0#
0$
0%
0&
0'
0(
0)
0*
0+
0,
0-
0.
0/
00
01
02
03
04
05
06
07
08
09
0:
0;
0<
0=
0>
0?
0@
0A
0B
0C
0D
0E
0F
b000000000000000000000000000000000000 G
0H
0I
1J
1K
0L
0M
0N
0O
0P
0Q
0R
0S
0T
0U
0V
0W
0X
0Y
0Z
0[
0\
0]
0^
0_
0`
0a
0b
0c
0d
0e
0f
0g
0h
0i
0j
0k
0l
0m
0n
0o
0p
b000000000000000000000000000000000000 q
0r
0s
1t
1u
$end
#1
#2
#3
#4
#5
#6
#7
#8
#9
#10
#11
#12
#13
#14
#15
#16
#17
#18
#19
#20
#21
#22
#23
#24
#25
#26
#27
#28
#29
#30
#31
#32
#33
#34
#35
#36
#37
#38
#39
#40
#41
#42
#43
#44
#45
#46
#47
#48
#49
#50
#51
#52
#53
#54
1H
1r
#55
#56
0H
0r
#57
#58
1H
1r
#59
#60
0H
0r
#61
#62
1H
1r
#63
#64
0H
0r
#65
#66
1H
1r
#67
#68
0H
0r
#69
#70
1H
1r
#71
#72
0H
0r
#73
#74
1H
1r
#75
#76
0H
0r
#77
#78
1H
1r
#79
#80
0H
0r
#81
#82
1H
1r
#83
#84
0H
0r
#85
#86
1H
1r
#87
#88
b000000000000000000000000001001001011G
0H
1I
0K
b000000000000000000000000001001001011q
0r
1s
0u
#89
#90
1=
1@
1C
1E
1F
1H
1g
1j
1m
1o
1p
1r
#91
#92
0H
0r
#93
#94
1<
0=
1?
0@
1B
0C
1D
0F
1H
1f
0g
1i
0j
1l
0m
1n
0p
1r
#95
#96
0H
0r
#97
#98
1=
1@
1A
0B
0D
0E
1F
1H
1g
1j
1k
0l
0n
0o
1p
1r
#99
#100
0H
0r
#101
#102
1;
0<
0=
1>
0?
0@
1C
1D
0F
1H
1e
0f
0g
1h
0i
0j
1m
1n
0p
1r
#103
#104
0H
0r
#105
#106
1=
1@
1B
0C
1E
1F
1H
1g
1j
1l
0m
1o
1p
1r
#107
#108
0H
0r
#109
#110
1<
0=
1?
0A
0B
0D
0F
1H
1f
0g
1i
0k
0l
0n
0p
1r
#111
#112
0H
0r
#113
#114
1:
0;
0<
0>
0?
0@
1C
1D
0E
1F
1H
1d
0e
0f
0h
0i
0j
1m
1n
0o
1p
1r
#115
#116
0H
0r
#117
#118
1=
1@
1B
0D
0F
1H
1g
1j
1l
0n
0p
1r
#119
#120
0H
0r
#121
#122
1<
0=
1?
0@
1A
0B
0C
1E
1F
1H
1f
0g
1i
0j
1k
0l
0m
1o
1p
1r
#123
#124
0H
0r
#125
#126
1=
1@
1C
1D
0F
1H
1g
1j
1m
1n
0p
1r
#127
#128
0H
0r
#129
#130
1;
0<
0=
1>
0?
0@
1B
0D
0E
1F
1H
1e
0f
0g
1h
0i
0j
1l
0n
0o
1p
1r
#131
#132
0H
0r
#133
#134
1=
1?
0A
0B
0C
1D
0F
1H
1g
1i
0k
0l
0m
1n
0p
1r
#135
#136
0H
0r
#137
#138
1<
0=
1@
1C
1E
1F
1H
1f
0g
1j
1m
1o
1p
1r
#139
#140
0H
0r
#141
#142
19
0:
0;
0<
0>
0?
0@
1B
0D
0F
1H
1c
0d
0e
0f
0h
0i
0j
1l
0n
0p
1r
#143
#144
0H
0r
#145
#146
1=
1@
1A
0B
0C
1D
0E
1F
1H
1g
1j
1k
0l
0m
1n
0o
1p
1r
#147
#148
0H
0r
#149
#150
1<
0=
1?
0@
1B
0D
0F
1H
1f
0g
1i
0j
1l
0n
0p
1r
#151
#152
0H
0r
#153
#154
1=
1@
1C
1E
1F
1H
1g
1j
1m
1o
1p
1r
#155
#156
0H
0r
#157
#158
1;
0<
0=
1>
0?
0A
0B
0C
1D
0F
1H
1e
0f
0g
1h
0i
0k
0l
0m
1n
0p
1r
#159
#160
0H
0r
#161
#162
1=
1?
0@
1B
0D
0E
1F
1H
1g
1i
0j
1l
0n
0o
1p
1r
#163
#164
0H
0r
#165
#166
1<
0=
1@
1C
1D
0F
1H
1f
0g
1j
1m
1n
0p
1r
#167
#168
0H
0r
#169
#170
1:
0;
0<
0>
0?
0@
1A
0B
0C
1E
1F
1H
1d
0e
0f
0h
0i
0j
1k
0l
0m
1o
1p
1r
#171
#172
0H
0r
#173
#174
1=
1@
1B
0D
0F
1H
1g
1j
1l
0n
0p
1r
#175
#176
0H
0r
#177
#178
1<
0=
1?
0@
1C
1D
0E
1F
1H
1f
0g
1i
0j
1m
1n
0o
1p
1r
#179
#180
0H
0r
#181
#182
1=
1>
0?
0A
0B
0D
0F
1H
1g
1h
0i
0k
0l
0n
0p
1r
#183
#184
0H
0r
#185
#186
1;
0<
0=
1@
1B
0C
1E
1F
1H
1e
0f
0g
1j
1l
0m
1o
1p
1r
#187
#188
0H
0r
#189
#190
1=
1?
0@
1C
1D
0F
1H
1g
1i
0j
1m
1n
0p
1r
#191
#192
0H
0r
#193
#194
1<
0=
1@
1A
0B
0D
0E
1F
1H
1f
0g
1j
1k
0l
0n
0o
1p
1r
#195
#196
0H
0r
#197
#198
18
09
0:
0;
0<
0>
0?
0@
1B
0C
1D
0F
1H
1b
0c
0d
0e
0f
0h
0i
0j
1l
0m
1n
0p
1r
#199
#200
0H
0r
#201
#202
1=
1@
1C
1E
1F
1H
1g
1j
1m
1o
1p
1r
#203
#204
0H
0r
#205
#206
1<
0=
1?
0A
0B
0D
0F
1H
1f
0g
1i
0k
0l
0n
0p
1r
#207
#208
0H
0r
#209
#210
1=
1>
0?
0@
1B
0C
1D
0E
1F
1H
1g
1h
0i
0j
1l
0m
1n
0o
1p
1r
#211
#212
0H
0r
#213
#214
1;
0<
0=
1@
1A
0B
0D
0F
1H
1e
0f
0g
1j
1k
0l
0n
0p
1r
#215
#216
0H
0r
#217
#218
1=
1?
0@
1C
1E
1F
1H
1g
1i
0j
1m
1o
1p
1r
#219
#220
0H
0r
#221
#222
1<
0=
1@
1B
0C
1D
0F
1H
1f
0g
1j
1l
0m
1n
0p
1r
#223
#224
0H
0r
#225
#226
1:
0;
0<
0>
0?
0A
0B
0D
0E
1F
1H
1d
0e
0f
0h
0i
0k
0l
0n
0o
1p
1r
#227
#228
0H
0r
#229
#230
1=
1?
0@
1C
1D
0F
1H
1g
1i
0j
1m
1n
0p
1r
#231
#232
0H
0r
#233
#234
1<
0=
1@
1B
0C
1E
1F
1H
1f
0g
1j
1l
0m
1o
1p
1r
#235
#236
0H
0r
#237
#238
1=
1>
0?
0@
1A
0B
0D
0F
1H
1g
1h
0i
0j
1k
0l
0n
0p
1r
#239
#240
0H
0r
#241
#242
1;
0<
0=
1@
1C
1D
0E
1F
1H
1e
0f
0g
1j
1m
1n
0o
1p
1r
#243
#244
0H
0r
#245
#246
1=
1?
0@
1B
0D
0F
1H
1g
1i
0j
1l
0n
0p
1r
#247
#248
0H
0r
#249
#250
1<
0>
0?
0A
0B
0C
1E
1F
1H
1f
0h
0i
0k
0l
0m
1o
1p
1r
#251
#252
0H
0r
#253
#254
19
0:
0;
0<
0=
1@
1C
1D
0F
1H
1c
0d
0e
0f
0g
1j
1m
1n
0p
1r
#255
#256
0H
0r
#257
#258
1=
1?
0@
1B
0D
0E
1F
1H
1g
1i
0j
1l
0n
0o
1p
1r
#259
#260
0H
0r
#261
#262
1<
0=
1@
1A
0B
0C
1D
0F
1H
1f
0g
1j
1k
0l
0m
1n
0p
1r
#263
#264
0H
0r
#265
#266
1=
1>
0?
0@
1C
1E
1F
1H
1g
1h
0i
0j
1m
1o
1p
1r
#267
#268
0H
0r
#269
#270
1;
0<
0=
1@
1B
0D
0F
1H
1e
0f
0g
1j
1l
0n
0p
1r
#271
#272
0H
0r
#273
#274
1=
1?
0A
0B
0C
1D
0E
1F
1H
1g
1i
0k
0l
0m
1n
0o
1p
1r
#275
#276
0H
0r
#277
#278
1<
0>
0?
0@
1B
0D
0F
1H
1f
0h
0i
0j
1l
0n
0p
1r
#279
#280
0H
0r
#281
#282
1:
0;
0<
0=
1@
1C
1E
1F
1H
1d
0e
0f
0g
1j
1m
1o
1p
1r
#283
#284
0H
0r
#285
#286
1=
1?
0@
1A
0B
0C
1D
0F
1H
1g
1i
0j
1k
0l
0m
1n
0p
1r
#287
#288
0H
0r
#289
#290
1<
0=
1@
1B
0D
0E
1F
1H
1f
0g
1j
1l
0n
0o
1p
1r
#291
#292
0H
0r
#293
#294
1=
1>
0?
0@
1C
1D
0F
1H
1g
1h
0i
0j
1m
1n
0p
1r
#295
#296
0H
0r
#297
#298
1;
0<
0=
1?
0A
0B
0C
1E
1F
1H
1e
0f
0g
1i
0k
0l
0m
1o
1p
1r
#299
#300
0H
0r
#301
#302
1=
1@
1B
0D
0F
1H
1g
1j
1l
0n
0p
1r
#303
#304
0H
0r
#305
#306
1<
0>
0?
0@
1C
1D
0E
1F
1H
1f
0h
0i
0j
1m
1n
0o
1p
1r
#307
#308
0H
0r
#309
#310
17
08
09
0:
0;
0<
0=
1@
1A
0B
0D
0F
1H
1a
0b
0c
0d
0e
0f
0g
1j
1k
0l
0n
0p
1r
#311
#312
0H
0r
#313
#314
1=
1?
0@
1B
0C
1E
1F
1H
1g
1i
0j
1l
0m
1o
1p
1r
#315
#316
0H
0r
#317
#318
1<
0=
1@
1C
1D
0F
1H
1f
0g
1j
1m
1n
0p
1r
#319
#320
0H
0r
#321
#322
1=
1>
0?
0A
0B
0D
0E
1F
1H
1g
1h
0i
0k
0l
0n
0o
1p
1r
#323
#324
0H
0r
#325
#326
1;
0<
0=
1?
0@
1B
0C
1D
0F
1H
1e
0f
0g
1i
0j
1l
0m
1n
0p
1r
#327
#328
0H
0r
#329
#330
1=
1@
1C
1E
1F
1H
1g
1j
1m
1o
1p
1r
#331
#332
0H
0r
#333
#334
1<
0>
0?
0@
1A
0B
0D
0F
1H
1f
0h
0i
0j
1k
0l
0n
0p
1r
#335
#336
0H
0r
#337
#338
1:
0;
0<
0=
1@
1B
0C
1D
0E
1F
1H
1d
0e
0f
0g
1j
1l
0m
1n
0o
1p
1r
#339
#340
0H
0r
#341
#342
1=
1?
0A
0B
0D
0F
1H
1g
1i
0k
0l
0n
0p
1r
#343
#344
0H
0r
#345
#346
1<
0=
1>
0?
0@
1C
1E
1F
1H
1f
0g
1h
0i
0j
1m
1o
1p
1r
#347
#348
0H
0r
#349
#350
1=
1@
1B
0C
1D
0F
1H
1g
1j
1l
0m
1n
0p
1r
#351
#352
0H
0r
#353
#354
1;
0<
0=
1?
0@
1A
0B
0D
0E
1F
1H
1e
0f
0g
1i
0j
1k
0l
0n
0o
1p
1r
#355
#356
0H
0r
#357
#358
1=
1@
1C
1D
0F
1H
1g
1j
1m
1n
0p
1r
#359
#360
0H
0r
#361
#362
1<
0>
0?
0@
1B
0C
1E
1F
1H
1f
0h
0i
0j
1l
0m
1o
1p
1r
#363
#364
0H
0r
#365
#366
19
0:
0;
0<
0=
1?
0A
0B
0D
0F
1H
1c
0d
0e
0f
0g
1i
0k
0l
0n
0p
1r
#367
#368
0H
0r
#369
#370
1=
1@
1C
1D
0E
1F
1H
1g
1j
1m
1n
0o
1p
1r
#371
#372
0H
0r
#373
#374
1<
0=
1>
0?
0@
1B
0D
0F
1H
1f
0g
1h
0i
0j
1l
0n
0p
1r
#375
#376
0H
0r
#377
#378
1=
1@
1A
0B
0C
1E
1F
1H
1g
1j
1k
0l
0m
1o
1p
1r
#379
#380
0H
0r
#381
#382
1;
0<
0=
1?
0@
1C
1D
0F
1H
1e
0f
0g
1i
0j
1m
1n
0p
1r
#383
#384
0H
0r
#385
#386
1=
1@
1B
0D
0E
1F
1H
1g
1j
1l
0n
0o
1p
1r
#387
#388
0H
0r
#389
#390
1<
0>
0?
0A
0B
0C
1D
0F
1H
1f
0h
0i
0k
0l
0m
1n
0p
1r
#391
#392
0H
0r
#393
#394
1:
0;
0<
0=
1?
0@
1C
1E
1F
1H
1d
0e
0f
0g
1i
0j
1m
1o
1p
1r
#395
#396
0H
0r
#397
#398
1=
1@
1B
0D
0F
1H
1g
1j
1l
0n
0p
1r
#399
#400
0H
0r
#401
#402
1<
0=
1>
0?
0@
1A
0B
0C
1D
0E
1F
1H
1f
0g
1h
0i
0j
1k
0l
0m
1n
0o
1p
1r
#403
#404
0H
0r
#405
#406
1=
1@
1B
0D
0F
1H
1g
1j
1l
0n
0p
1r
#407
#408
0H
0r
#409
#410
1;
0<
0=
1?
0@
1C
1E
1F
1H
1e
0f
0g
1i
0j
1m
1o
1p
1r
#411
#412
0H
0r
#413
#414
1<
0>
0?
0A
0B
0C
1D
0F
1H
1f
0h
0i
0k
0l
0m
1n
0p
1r
#415
#416
0H
0r
#417
#418
1=
1@
1B
0D
0E
1F
1H
1g
1j
1l
0n
0o
1p
1r
#419
#420
0H
0r
#421
#422
18
09
0:
0;
0<
0=
1?
0@
1C
1D
0F
1H
1b
0c
0d
0e
0f
0g
1i
0j
1m
1n
0p
1r
#423
#424
0H
0r
#425
#426
1=
1@
1A
0B
0C
1E
1F
1H
1g
1j
1k
0l
0m
1o
1p
1r
#427
#428
0H
0r
#429
#430
1<
0=
1>
0?
0@
1B
0D
0F
1H
1f
0g
1h
0i
0j
1l
0n
0p
1r
#431
#432
0H
0r
#433
#434
1=
1@
1C
1D
0E
1F
1H
1g
1j
1m
1n
0o
1p
1r
#435
#436
0H
0r
#437
#438
1;
0<
0=
1?
0A
0B
0D
0F
1H
1e
0f
0g
1i
0k
0l
0n
0p
1r
#439
#440
0H
0r
#441
#442
1<
0>
0?
0@
1B
0C
1E
1F
1H
1f
0h
0i
0j
1l
0m
1o
1p
1r
#443
#444
0H
0r
#445
#446
1=
1@
1C
1D
0F
1H
1g
1j
1m
1n
0p
1r
#447
#448
0H
0r
#449
#450
1:
0;
0<
0=
1?
0@
1A
0B
0D
0E
1F
1H
1d
0e
0f
0g
1i
0j
1k
0l
0n
0o
1p
1r
#451
#452
0H
0r
#453
#454
1=
1@
1B
0C
1D
0F
1H
1g
1j
1l
0m
1n
0p
1r
#455
#456
0H
0r
#457
#458
1<
0=
1>
0?
0@
1C
1E
1F
1H
1f
0g
1h
0i
0j
1m
1o
1p
1r
#459
#460
0H
0r
#461
#462
1=
1?
0A
0B
0D
0F
1H
1g
1i
0k
0l
0n
0p
1r
#463
#464
0H
0r
#465
#466
1;
0<
0=
1@
1B
0C
1D
0E
1F
1H
1e
0f
0g
1j
1l
0m
1n
0o
1p
1r
#467
#468
0H
0r
#469
#470
1<
0>
0?
0@
1A
0B
0D
0F
1H
1f
0h
0i
0j
1k
0l
0n
0p
1r
#471
#472
0H
0r
#473
#474
1=
1@
1C
1E
1F
1H
1g
1j
1m
1o
1p
1r
#475
#476
0H
0r
#477
#478
19
0:
0;
0<
0=
1?
0@
1B
0C
1D
0F
1H
1c
0d
0e
0f
0g
1i
0j
1l
0m
1n
0p
1r
#479
#480
0H
0r
#481
#482
1=
1>
0?
0A
0B
0D
0E
1F
1H
1g
1h
0i
0k
0l
0n
0o
1p
1r
#483
#484
0H
0r
#485
#486
1<
0=
1@
1C
1D
0F
1H
1f
0g
1j
1m
1n
0p
1r
